\relax 
\providecommand\hyper@newdestlabel[2]{}
\@writefile{toc}{\contentsline {chapter}{\numberline {A}Hojas de Caracter\IeC {\'\i }sticas}{147}{appendix.Alph1}\protected@file@percent }
\@writefile{lof}{\addvspace {10\p@ }}
\@writefile{lot}{\addvspace {10\p@ }}
\newlabel{fig:dsdht1}{{\caption@xref {fig:dsdht1}{ on input line 16}}{148}{Hojas de Características}{figure.caption.133}{}}
\newlabel{fig:dsdht2}{{\caption@xref {fig:dsdht2}{ on input line 23}}{149}{Hojas de Características}{figure.caption.134}{}}
\newlabel{fig:dsdht3}{{\caption@xref {fig:dsdht3}{ on input line 30}}{150}{Hojas de Características}{figure.caption.135}{}}
\newlabel{fig:dsdht4}{{\caption@xref {fig:dsdht4}{ on input line 36}}{151}{Hojas de Características}{figure.caption.136}{}}
\newlabel{fig:dsdht5}{{\caption@xref {fig:dsdht5}{ on input line 42}}{152}{Hojas de Características}{figure.caption.137}{}}
\newlabel{fig:dspir1}{{\caption@xref {fig:dspir1}{ on input line 53}}{153}{Hojas de Características}{figure.caption.138}{}}
\newlabel{fig:dspir2}{{\caption@xref {fig:dspir2}{ on input line 59}}{154}{Hojas de Características}{figure.caption.139}{}}
\newlabel{fig:dspir3}{{\caption@xref {fig:dspir3}{ on input line 65}}{155}{Hojas de Características}{figure.caption.140}{}}
\newlabel{fig:dspir4}{{\caption@xref {fig:dspir4}{ on input line 71}}{156}{Hojas de Características}{figure.caption.141}{}}
\newlabel{fig:dsmq2}{{\caption@xref {fig:dsmq2}{ on input line 81}}{157}{Hojas de Características}{figure.caption.142}{}}
\newlabel{fig:dsagua1}{{\caption@xref {fig:dsagua1}{ on input line 90}}{158}{Hojas de Características}{figure.caption.143}{}}
\newlabel{fig:dsagua2}{{\caption@xref {fig:dsagua2}{ on input line 96}}{159}{Hojas de Características}{figure.caption.144}{}}
\newlabel{fig:dsagua3}{{\caption@xref {fig:dsagua3}{ on input line 102}}{160}{Hojas de Características}{figure.caption.145}{}}
\newlabel{fig:dsagua4}{{\caption@xref {fig:dsagua4}{ on input line 108}}{161}{Hojas de Características}{figure.caption.146}{}}
\newlabel{fig:dszumbador}{{\caption@xref {fig:dszumbador}{ on input line 118}}{162}{Hojas de Características}{figure.caption.147}{}}
\@writefile{toc}{\contentsline {chapter}{\numberline {B}Manuales de Instalaci\IeC {\'o}n y Configuraci\IeC {\'o}n}{163}{appendix.Alph2}\protected@file@percent }
\@writefile{lof}{\addvspace {10\p@ }}
\@writefile{lot}{\addvspace {10\p@ }}
\@writefile{toc}{\contentsline {section}{\numberline {B.1}Instalaci\IeC {\'o}n de Raspbian}{163}{section.Alph2.1}\protected@file@percent }
\newlabel{fig:selectimageniso}{{\caption@xref {fig:selectimageniso}{ on input line 155}}{164}{Instalación de Raspbian}{figure.caption.148}{}}
\@writefile{lof}{\contentsline {figure}{\numberline {B.1}{\ignorespaces Pulsar bot\IeC {\'o}n ''Select Image''\relax }}{164}{figure.caption.148}\protected@file@percent }
\@writefile{lof}{\contentsline {figure}{\numberline {B.2}{\ignorespaces Seleccionar imagen ISO de Raspbian\relax }}{164}{figure.caption.149}\protected@file@percent }
\newlabel{fig:imageniso}{{B.2}{164}{Seleccionar imagen ISO de Raspbian\relax }{figure.caption.149}{}}
\@writefile{lof}{\contentsline {figure}{\numberline {B.3}{\ignorespaces Pulsar bot\IeC {\'o}n ''Select Drive''\relax }}{164}{figure.caption.150}\protected@file@percent }
\newlabel{fig:selectdrive}{{B.3}{164}{Pulsar botón ''Select Drive''\relax }{figure.caption.150}{}}
\newlabel{fig:drive}{{\caption@xref {fig:drive}{ on input line 187}}{165}{Instalación de Raspbian}{figure.caption.151}{}}
\@writefile{lof}{\contentsline {figure}{\numberline {B.4}{\ignorespaces Seleccionar unidad de la tarjeta\relax }}{165}{figure.caption.151}\protected@file@percent }
\newlabel{fig:selectflash}{{\caption@xref {fig:selectflash}{ on input line 196}}{165}{Instalación de Raspbian}{figure.caption.152}{}}
\@writefile{lof}{\contentsline {figure}{\numberline {B.5}{\ignorespaces Pulsar bot\IeC {\'o}n ''Flash!''\relax }}{165}{figure.caption.152}\protected@file@percent }
\newlabel{fig:montando}{{\caption@xref {fig:montando}{ on input line 205}}{165}{Instalación de Raspbian}{figure.caption.153}{}}
\@writefile{lof}{\contentsline {figure}{\numberline {B.6}{\ignorespaces Montaje de imagen en curso\relax }}{165}{figure.caption.153}\protected@file@percent }
\@writefile{toc}{\contentsline {section}{\numberline {B.2}Instalaci\IeC {\'o}n Programa Gateway}{166}{section.Alph2.2}\protected@file@percent }
\newlabel{chap:programagateway}{{B.2}{166}{Instalación Programa Gateway}{section.Alph2.2}{}}
\@writefile{toc}{\contentsline {section}{\numberline {B.3}Instalaci\IeC {\'o}n y Configuraci\IeC {\'o}n Servidor UV4L}{167}{section.Alph2.3}\protected@file@percent }
\newlabel{fig:routerconfiguracion}{{\caption@xref {fig:routerconfiguracion}{ on input line 449}}{170}{Instalación y Configuración Servidor UV4L}{figure.caption.154}{}}
\@writefile{lof}{\contentsline {figure}{\numberline {B.7}{\ignorespaces Configuraci\IeC {\'o}n de redirecci\IeC {\'o}n de puertos en el router\relax }}{170}{figure.caption.154}\protected@file@percent }
\@writefile{toc}{\contentsline {section}{\numberline {B.4}Instalaci\IeC {\'o}n Servidor Django Rest Framework}{171}{section.Alph2.4}\protected@file@percent }
\newlabel{fig:nuevaapp3}{{\caption@xref {fig:nuevaapp3}{ on input line 479}}{171}{Instalación Servidor Django Rest Framework}{figure.caption.155}{}}
\@writefile{lof}{\contentsline {figure}{\numberline {B.8}{\ignorespaces Configuraci\IeC {\'o}n manual y versi\IeC {\'o}n Python\relax }}{171}{figure.caption.155}\protected@file@percent }
\newlabel{fig:bbdd2}{{\caption@xref {fig:bbdd2}{ on input line 526}}{172}{Instalación Servidor Django Rest Framework}{figure.caption.156}{}}
\@writefile{lof}{\contentsline {figure}{\numberline {B.9}{\ignorespaces Creaci\IeC {\'o}n de BBDD\relax }}{172}{figure.caption.156}\protected@file@percent }
\newlabel{fig:seguridad}{{\caption@xref {fig:seguridad}{ on input line 581}}{173}{Instalación Servidor Django Rest Framework}{figure.caption.157}{}}
\@writefile{lof}{\contentsline {figure}{\numberline {B.10}{\ignorespaces Habilitar redirecci\IeC {\'o}n HTTPS\relax }}{173}{figure.caption.157}\protected@file@percent }
\@writefile{toc}{\contentsline {section}{\numberline {B.5}Instalaci\IeC {\'o}n Aplicaci\IeC {\'o}n Android SIDOCS}{177}{section.Alph2.5}\protected@file@percent }
\@writefile{toc}{\contentsline {chapter}{\numberline {C}Manual de Usuario - Aplicaci\IeC {\'o}n M\IeC {\'o}vil SIDOCS}{179}{appendix.Alph3}\protected@file@percent }
\@writefile{lof}{\addvspace {10\p@ }}
\@writefile{lot}{\addvspace {10\p@ }}
\@writefile{toc}{\contentsline {section}{\numberline {C.1}Introducci\IeC {\'o}n}{179}{section.Alph3.1}\protected@file@percent }
\@writefile{toc}{\contentsline {section}{\numberline {C.2}Requisitos del Sistema}{179}{section.Alph3.2}\protected@file@percent }
\@writefile{toc}{\contentsline {section}{\numberline {C.3}M\IeC {\'o}dulos de la Aplicaci\IeC {\'o}n}{179}{section.Alph3.3}\protected@file@percent }
\@writefile{toc}{\contentsline {subsection}{\numberline {C.3.1}Registro}{179}{subsection.Alph3.3.1}\protected@file@percent }
\newlabel{fig:registroelnace}{{\caption@xref {fig:registroelnace}{ on input line 838}}{180}{Registro}{figure.caption.158}{}}
\@writefile{lof}{\contentsline {figure}{\numberline {C.1}{\ignorespaces Enlace a m\IeC {\'o}dulo de Registro\relax }}{180}{figure.caption.158}\protected@file@percent }
\newlabel{fig:registro}{{\caption@xref {fig:registro}{ on input line 855}}{180}{Registro}{figure.caption.159}{}}
\@writefile{lof}{\contentsline {figure}{\numberline {C.2}{\ignorespaces Registro de Usuario\relax }}{180}{figure.caption.159}\protected@file@percent }
\@writefile{toc}{\contentsline {subsection}{\numberline {C.3.2}Acceso}{181}{subsection.Alph3.3.2}\protected@file@percent }
\newlabel{fig:acceder}{{\caption@xref {fig:acceder}{ on input line 873}}{181}{Acceso}{figure.caption.160}{}}
\@writefile{lof}{\contentsline {figure}{\numberline {C.3}{\ignorespaces Acceso a la aplicaci\IeC {\'o}n\relax }}{181}{figure.caption.160}\protected@file@percent }
\@writefile{toc}{\contentsline {subsection}{\numberline {C.3.3}Men\IeC {\'u} Principal}{181}{subsection.Alph3.3.3}\protected@file@percent }
\newlabel{fig:menuprincipal}{{\caption@xref {fig:menuprincipal}{ on input line 894}}{182}{Menú Principal}{figure.caption.161}{}}
\@writefile{lof}{\contentsline {figure}{\numberline {C.4}{\ignorespaces Men\IeC {\'u} Principal\relax }}{182}{figure.caption.161}\protected@file@percent }
\@writefile{toc}{\contentsline {subsection}{\numberline {C.3.4}Temperatura y Humedad}{182}{subsection.Alph3.3.4}\protected@file@percent }
\newlabel{fig:temphum}{{\caption@xref {fig:temphum}{ on input line 906}}{182}{Temperatura y Humedad}{figure.caption.162}{}}
\@writefile{lof}{\contentsline {figure}{\numberline {C.5}{\ignorespaces Temperatura y Humedad Relativa\relax }}{182}{figure.caption.162}\protected@file@percent }
\@writefile{toc}{\contentsline {subsection}{\numberline {C.3.5}C\IeC {\'a}mara de Seguridad}{183}{subsection.Alph3.3.5}\protected@file@percent }
\newlabel{fig:menuprincipal2}{{\caption@xref {fig:menuprincipal2}{ on input line 921}}{183}{Cámara de Seguridad}{figure.caption.163}{}}
\@writefile{lof}{\contentsline {figure}{\numberline {C.6}{\ignorespaces C\IeC {\'a}mara de Seguridad - Modo d\IeC {\'\i }a y modo noche\relax }}{183}{figure.caption.163}\protected@file@percent }
\@writefile{toc}{\contentsline {subsection}{\numberline {C.3.6}Listado de Alarmas}{183}{subsection.Alph3.3.6}\protected@file@percent }
\newlabel{fig:listadoalarmas}{{\caption@xref {fig:listadoalarmas}{ on input line 946}}{184}{Listado de Alarmas}{figure.caption.164}{}}
\@writefile{lof}{\contentsline {figure}{\numberline {C.7}{\ignorespaces Listado de Alarmas\relax }}{184}{figure.caption.164}\protected@file@percent }
\@writefile{toc}{\contentsline {subsection}{\numberline {C.3.7}Configuraci\IeC {\'o}n}{184}{subsection.Alph3.3.7}\protected@file@percent }
\newlabel{fig:configuracion}{{\caption@xref {fig:configuracion}{ on input line 960}}{184}{Configuración}{figure.caption.165}{}}
\@writefile{lof}{\contentsline {figure}{\numberline {C.8}{\ignorespaces Configuraci\IeC {\'o}n del sistema\relax }}{184}{figure.caption.165}\protected@file@percent }
\newlabel{fig:modofuncionamiento}{{\caption@xref {fig:modofuncionamiento}{ on input line 993}}{185}{Configuración}{figure.caption.166}{}}
\@writefile{lof}{\contentsline {figure}{\numberline {C.9}{\ignorespaces Selecci\IeC {\'o}n de Modo de Funcionamiento\relax }}{185}{figure.caption.166}\protected@file@percent }
\@writefile{toc}{\contentsline {subsection}{\numberline {C.3.8}Notificaciones}{185}{subsection.Alph3.3.8}\protected@file@percent }
\newlabel{fig:notificacionrecibida}{{\caption@xref {fig:notificacionrecibida}{ on input line 1015}}{186}{Notificaciones}{figure.caption.167}{}}
\@writefile{lof}{\contentsline {figure}{\numberline {C.10}{\ignorespaces Guardar Configuraci\IeC {\'o}n\relax }}{186}{figure.caption.167}\protected@file@percent }
\@writefile{toc}{\contentsline {subsection}{\numberline {C.3.9}Men\IeC {\'u} Superior}{186}{subsection.Alph3.3.9}\protected@file@percent }
\newlabel{fig:cerrarsesion}{{\caption@xref {fig:cerrarsesion}{ on input line 1036}}{186}{Menú Superior}{figure.caption.168}{}}
\@writefile{lof}{\contentsline {figure}{\numberline {C.11}{\ignorespaces Recepci\IeC {\'o}n de Notificaci\IeC {\'o}n\relax }}{186}{figure.caption.168}\protected@file@percent }
\@setckpt{capitulos/apendice}{
\setcounter{page}{187}
\setcounter{equation}{0}
\setcounter{enumi}{2}
\setcounter{enumii}{0}
\setcounter{enumiii}{0}
\setcounter{enumiv}{0}
\setcounter{footnote}{0}
\setcounter{mpfootnote}{0}
\setcounter{part}{0}
\setcounter{chapter}{3}
\setcounter{section}{3}
\setcounter{subsection}{9}
\setcounter{subsubsection}{0}
\setcounter{paragraph}{0}
\setcounter{subparagraph}{0}
\setcounter{figure}{11}
\setcounter{table}{0}
\setcounter{parentequation}{0}
\setcounter{subfigure}{0}
\setcounter{lofdepth}{1}
\setcounter{subtable}{0}
\setcounter{lotdepth}{1}
\setcounter{lstnumber}{59}
\setcounter{@pps}{0}
\setcounter{@ppsavesec}{0}
\setcounter{@ppsaveapp}{0}
\setcounter{LT@tables}{5}
\setcounter{LT@chunks}{5}
\setcounter{Item}{47}
\setcounter{Hfootnote}{40}
\setcounter{bookmark@seq@number}{93}
\setcounter{caption@flags}{0}
\setcounter{ContinuedFloat}{0}
\setcounter{lstlisting}{0}
\setcounter{section@level}{2}
}
