\relax 
\providecommand\hyper@newdestlabel[2]{}
\@writefile{toc}{\contentsline {chapter}{\numberline {8}Conclusiones}{143}{chapter.8}\protected@file@percent }
\@writefile{lof}{\addvspace {10\p@ }}
\@writefile{lot}{\addvspace {10\p@ }}
\@writefile{toc}{\contentsline {section}{\numberline {8.1}Conclusi\IeC {\'o}n}{143}{section.8.1}\protected@file@percent }
\@writefile{toc}{\contentsline {section}{\numberline {8.2}Desarrollos futuros}{144}{section.8.2}\protected@file@percent }
\@setckpt{capitulos/conclusion}{
\setcounter{page}{146}
\setcounter{equation}{0}
\setcounter{enumi}{5}
\setcounter{enumii}{0}
\setcounter{enumiii}{0}
\setcounter{enumiv}{0}
\setcounter{footnote}{0}
\setcounter{mpfootnote}{0}
\setcounter{part}{0}
\setcounter{chapter}{8}
\setcounter{section}{2}
\setcounter{subsection}{0}
\setcounter{subsubsection}{0}
\setcounter{paragraph}{0}
\setcounter{subparagraph}{0}
\setcounter{figure}{0}
\setcounter{table}{0}
\setcounter{parentequation}{0}
\setcounter{subfigure}{0}
\setcounter{lofdepth}{1}
\setcounter{subtable}{0}
\setcounter{lotdepth}{1}
\setcounter{lstnumber}{9}
\setcounter{@pps}{0}
\setcounter{@ppsavesec}{0}
\setcounter{@ppsaveapp}{0}
\setcounter{LT@tables}{5}
\setcounter{LT@chunks}{5}
\setcounter{Item}{15}
\setcounter{Hfootnote}{40}
\setcounter{bookmark@seq@number}{73}
\setcounter{caption@flags}{2}
\setcounter{ContinuedFloat}{0}
\setcounter{lstlisting}{0}
\setcounter{section@level}{1}
}
