\relax 
\providecommand\hyper@newdestlabel[2]{}
\@writefile{toc}{\contentsline {chapter}{\numberline {4}Dise\IeC {\~n}o de la Arquitectura}{31}{chapter.4}\protected@file@percent }
\@writefile{lof}{\addvspace {10\p@ }}
\@writefile{lot}{\addvspace {10\p@ }}
\@writefile{toc}{\contentsline {section}{\numberline {4.1}Introducci\IeC {\'o}n}{31}{section.4.1}\protected@file@percent }
\@writefile{toc}{\contentsline {section}{\numberline {4.2}Arquitectura Hardware}{32}{section.4.2}\protected@file@percent }
\@writefile{lof}{\contentsline {figure}{\numberline {4.1}{\ignorespaces Arquitectura est\IeC {\'a}ndar de dom\IeC {\'o}tica IoT\relax }}{32}{figure.caption.34}\protected@file@percent }
\newlabel{fig:arqiotdiag}{{4.1}{32}{Arquitectura estándar de domótica IoT\relax }{figure.caption.34}{}}
\@writefile{lof}{\contentsline {figure}{\numberline {4.2}{\ignorespaces Diagrama de la arquitectura SIDOCS\relax }}{33}{figure.caption.35}\protected@file@percent }
\newlabel{fig:arqsidocsdiag}{{4.2}{33}{Diagrama de la arquitectura SIDOCS\relax }{figure.caption.35}{}}
\@writefile{toc}{\contentsline {section}{\numberline {4.3}Arquitectura Software}{34}{section.4.3}\protected@file@percent }
\@writefile{toc}{\contentsline {subsection}{\numberline {4.3.1}Programa Arduino}{34}{subsection.4.3.1}\protected@file@percent }
\newlabel{ssc:programaarduino}{{4.3.1}{34}{Programa Arduino}{subsection.4.3.1}{}}
\@writefile{lof}{\contentsline {figure}{\numberline {4.3}{\ignorespaces Diagrma de clases UML Arduino\relax }}{34}{figure.caption.36}\protected@file@percent }
\newlabel{fig:disenyoarduino}{{4.3}{34}{Diagrma de clases UML Arduino\relax }{figure.caption.36}{}}
\@writefile{toc}{\contentsline {subsection}{\numberline {4.3.2}Programa Gateway}{35}{subsection.4.3.2}\protected@file@percent }
\newlabel{ssc:programagateway}{{4.3.2}{35}{Programa Gateway}{subsection.4.3.2}{}}
\@writefile{lof}{\contentsline {figure}{\numberline {4.4}{\ignorespaces Diagrma de clases UML Gateway\relax }}{37}{figure.caption.37}\protected@file@percent }
\newlabel{fig:disenyogateway}{{4.4}{37}{Diagrma de clases UML Gateway\relax }{figure.caption.37}{}}
\@writefile{toc}{\contentsline {subsection}{\numberline {4.3.3}Comunicaci\IeC {\'o}n Arduino - Raspberry Pi}{38}{subsection.4.3.3}\protected@file@percent }
\newlabel{ssc:comardurb}{{4.3.3}{38}{Comunicación Arduino - Raspberry Pi}{subsection.4.3.3}{}}
\@writefile{lof}{\contentsline {figure}{\numberline {4.5}{\ignorespaces Diagrama de comunicaci\IeC {\'o}n Arduino - Raspberry Pi\relax }}{38}{figure.caption.38}\protected@file@percent }
\newlabel{fig:conexarduinoraspberry}{{4.5}{38}{Diagrama de comunicación Arduino - Raspberry Pi\relax }{figure.caption.38}{}}
\@writefile{toc}{\contentsline {subsection}{\numberline {4.3.4}Aplicaci\IeC {\'o}n API REST}{41}{subsection.4.3.4}\protected@file@percent }
\@writefile{lof}{\contentsline {figure}{\numberline {4.6}{\ignorespaces Arquitectura est\IeC {\'a}ndar Django Rest Framework\relax }}{41}{figure.caption.39}\protected@file@percent }
\newlabel{fig:disenyodrfstandar}{{4.6}{41}{Arquitectura estándar Django Rest Framework\relax }{figure.caption.39}{}}
\@writefile{lof}{\contentsline {figure}{\numberline {4.7}{\ignorespaces Propuesta de Arquitectura Django Rest Framework\relax }}{42}{figure.caption.40}\protected@file@percent }
\newlabel{fig:disenyodrfnew}{{4.7}{42}{Propuesta de Arquitectura Django Rest Framework\relax }{figure.caption.40}{}}
\@writefile{toc}{\contentsline {subsection}{\numberline {4.3.5}Aplicaci\IeC {\'o}n Android}{43}{subsection.4.3.5}\protected@file@percent }
\newlabel{ssc:disenyoandroid}{{4.3.5}{43}{Aplicación Android}{subsection.4.3.5}{}}
\@writefile{lof}{\contentsline {figure}{\numberline {4.8}{\ignorespaces Fases de ejecuci\IeC {\'o}n - Aplicaci\IeC {\'o}n Android\relax }}{43}{figure.caption.41}\protected@file@percent }
\newlabel{fig:fasesandroid}{{4.8}{43}{Fases de ejecución - Aplicación Android\relax }{figure.caption.41}{}}
\@writefile{lof}{\contentsline {figure}{\numberline {4.9}{\ignorespaces Diagrama de Caso de Uso - Usuario no registrado o no accedido\relax }}{44}{figure.caption.42}\protected@file@percent }
\newlabel{fig:disenyoandroiduc1}{{4.9}{44}{Diagrama de Caso de Uso - Usuario no registrado o no accedido\relax }{figure.caption.42}{}}
\@writefile{lof}{\contentsline {figure}{\numberline {4.10}{\ignorespaces Diagrama de Caso de Uso - Usuario accedido\relax }}{44}{figure.caption.43}\protected@file@percent }
\newlabel{fig:disenyoandroiduc2}{{4.10}{44}{Diagrama de Caso de Uso - Usuario accedido\relax }{figure.caption.43}{}}
\@writefile{lof}{\contentsline {figure}{\numberline {4.11}{\ignorespaces Mockup aplicaci\IeC {\'o}n Android - Acceso y Registro\relax }}{45}{figure.caption.44}\protected@file@percent }
\newlabel{fig:mockup_acceso_registro}{{4.11}{45}{Mockup aplicación Android - Acceso y Registro\relax }{figure.caption.44}{}}
\@writefile{lof}{\contentsline {figure}{\numberline {4.12}{\ignorespaces Mockup aplicaci\IeC {\'o}n Android - Men\IeC {\'u} y men\IeC {\'u} superior\relax }}{46}{figure.caption.45}\protected@file@percent }
\newlabel{fig:mockup_menu_menusup}{{4.12}{46}{Mockup aplicación Android - Menú y menú superior\relax }{figure.caption.45}{}}
\@writefile{lof}{\contentsline {figure}{\numberline {4.13}{\ignorespaces Mockup aplicaci\IeC {\'o}n Android - Cr\IeC {\'e}ditos y Cerrar sesi\IeC {\'o}n\relax }}{46}{figure.caption.46}\protected@file@percent }
\newlabel{fig:mockup_creditos_cerrar_sesion}{{4.13}{46}{Mockup aplicación Android - Créditos y Cerrar sesión\relax }{figure.caption.46}{}}
\@writefile{lof}{\contentsline {figure}{\numberline {4.14}{\ignorespaces Mockup aplicaci\IeC {\'o}n Android - Sensores, V\IeC {\'\i }deoc\IeC {\'a}mara y Alarmas\relax }}{47}{figure.caption.47}\protected@file@percent }
\newlabel{fig:mockup_sensores_camara_alarmas}{{4.14}{47}{Mockup aplicación Android - Sensores, Vídeocámara y Alarmas\relax }{figure.caption.47}{}}
\@writefile{lof}{\contentsline {figure}{\numberline {4.15}{\ignorespaces Mockup aplicaci\IeC {\'o}n Android - Configuraci\IeC {\'o}n\relax }}{47}{figure.caption.48}\protected@file@percent }
\newlabel{fig:mockup_configuracion}{{4.15}{47}{Mockup aplicación Android - Configuración\relax }{figure.caption.48}{}}
\@writefile{lof}{\contentsline {figure}{\numberline {4.16}{\ignorespaces Icono del proyecto - SIDOCS\relax }}{48}{figure.caption.49}\protected@file@percent }
\newlabel{fig:iconosidocs}{{4.16}{48}{Icono del proyecto - SIDOCS\relax }{figure.caption.49}{}}
\@writefile{lof}{\contentsline {figure}{\numberline {4.17}{\ignorespaces Estructura del proyecto Android\relax }}{48}{figure.caption.50}\protected@file@percent }
\newlabel{fig:disenyoandroid}{{4.17}{48}{Estructura del proyecto Android\relax }{figure.caption.50}{}}
\@writefile{toc}{\contentsline {subsection}{\numberline {4.3.6}Servidor de V\IeC {\'\i }deo Streaming}{49}{subsection.4.3.6}\protected@file@percent }
\newlabel{ssc:serstreaming}{{4.3.6}{49}{Servidor de Vídeo Streaming}{subsection.4.3.6}{}}
\@setckpt{capitulos/disenyo}{
\setcounter{page}{50}
\setcounter{equation}{0}
\setcounter{enumi}{5}
\setcounter{enumii}{0}
\setcounter{enumiii}{0}
\setcounter{enumiv}{0}
\setcounter{footnote}{2}
\setcounter{mpfootnote}{0}
\setcounter{part}{0}
\setcounter{chapter}{4}
\setcounter{section}{3}
\setcounter{subsection}{6}
\setcounter{subsubsection}{0}
\setcounter{paragraph}{0}
\setcounter{subparagraph}{0}
\setcounter{figure}{17}
\setcounter{table}{0}
\setcounter{parentequation}{0}
\setcounter{subfigure}{0}
\setcounter{lofdepth}{1}
\setcounter{subtable}{0}
\setcounter{lotdepth}{1}
\setcounter{lstnumber}{1}
\setcounter{@pps}{0}
\setcounter{@ppsavesec}{0}
\setcounter{@ppsaveapp}{0}
\setcounter{LT@tables}{0}
\setcounter{LT@chunks}{0}
\setcounter{Item}{15}
\setcounter{Hfootnote}{21}
\setcounter{bookmark@seq@number}{37}
\setcounter{caption@flags}{0}
\setcounter{ContinuedFloat}{0}
\setcounter{lstlisting}{0}
\setcounter{section@level}{2}
}
