\relax 
\providecommand\hyper@newdestlabel[2]{}
\@writefile{toc}{\contentsline {chapter}{\numberline {6}C\IeC {\'o}mo escribir en Latex}{23}{chapter.6}\protected@file@percent }
\@writefile{lof}{\addvspace {10\p@ }}
\@writefile{lot}{\addvspace {10\p@ }}
\@writefile{toc}{\contentsline {section}{\numberline {6.1}Estilo}{23}{section.6.1}\protected@file@percent }
\@writefile{toc}{\contentsline {section}{\numberline {6.2}Citas}{23}{section.6.2}\protected@file@percent }
\@writefile{toc}{\contentsline {section}{\numberline {6.3}Listas}{23}{section.6.3}\protected@file@percent }
\@writefile{toc}{\contentsline {section}{\numberline {6.4}Tablas}{23}{section.6.4}\protected@file@percent }
\@writefile{lot}{\contentsline {table}{\numberline {6.1}{\ignorespaces Ejemplo de tabla\relax }}{23}{table.caption.17}\protected@file@percent }
\newlabel{tab:table_example}{{6.1}{23}{Ejemplo de tabla\relax }{table.caption.17}{}}
\@writefile{lof}{\contentsline {figure}{\numberline {6.1}{\ignorespaces Logotipo de la UPM\relax }}{24}{figure.caption.18}\protected@file@percent }
\newlabel{fig:logo_upm}{{6.1}{24}{Logotipo de la UPM\relax }{figure.caption.18}{}}
\@writefile{toc}{\contentsline {section}{\numberline {6.5}Referencia a una secci\IeC {\'o}n}{24}{section.6.5}\protected@file@percent }
\newlabel{sec:refsec}{{6.5}{24}{Referencia a una sección}{section.6.5}{}}
\@writefile{toc}{\contentsline {section}{\numberline {6.6}Texto}{24}{section.6.6}\protected@file@percent }
\@writefile{toc}{\contentsline {section}{\numberline {6.7}Figuras}{24}{section.6.7}\protected@file@percent }
\@writefile{toc}{\contentsline {section}{\numberline {6.8}C\IeC {\'o}digo software}{24}{section.6.8}\protected@file@percent }
\newlabel{code:prog1}{{6.1}{24}{Hola Mundo}{lstlisting.6.1}{}}
\@writefile{lol}{\contentsline {lstlisting}{\numberline {6.1}Hola Mundo}{24}{lstlisting.6.1}\protected@file@percent }
\@writefile{toc}{\contentsline {section}{\numberline {6.9}Pie de p\IeC {\'a}gina}{25}{section.6.9}\protected@file@percent }
\@setckpt{capitulos/ejemplos}{
\setcounter{page}{26}
\setcounter{equation}{0}
\setcounter{enumi}{2}
\setcounter{enumii}{0}
\setcounter{enumiii}{0}
\setcounter{enumiv}{0}
\setcounter{footnote}{2}
\setcounter{mpfootnote}{0}
\setcounter{part}{0}
\setcounter{chapter}{6}
\setcounter{section}{9}
\setcounter{subsection}{0}
\setcounter{subsubsection}{0}
\setcounter{paragraph}{0}
\setcounter{subparagraph}{0}
\setcounter{figure}{1}
\setcounter{table}{1}
\setcounter{parentequation}{0}
\setcounter{subfigure}{0}
\setcounter{lofdepth}{1}
\setcounter{subtable}{0}
\setcounter{lotdepth}{1}
\setcounter{lstnumber}{9}
\setcounter{@pps}{0}
\setcounter{@ppsavesec}{0}
\setcounter{@ppsaveapp}{0}
\setcounter{Item}{8}
\setcounter{Hfootnote}{4}
\setcounter{bookmark@seq@number}{39}
\setcounter{caption@flags}{0}
\setcounter{ContinuedFloat}{0}
\setcounter{lstlisting}{1}
\setcounter{section@level}{1}
}
