\relax 
\providecommand\hyper@newdestlabel[2]{}
\citation{Nan:2017}
\citation{Salman:2016}
\@writefile{toc}{\contentsline {chapter}{\numberline {2}Estado del arte}{7}{chapter.2}\protected@file@percent }
\@writefile{lof}{\addvspace {10\p@ }}
\@writefile{lot}{\addvspace {10\p@ }}
\newlabel{chap:estadodelarte}{{2}{7}{Estado del arte}{chapter.2}{}}
\@writefile{toc}{\contentsline {section}{\numberline {2.1}Dom\IeC {\'o}tica y aplicaciones}{7}{section.2.1}\protected@file@percent }
\citation{HASHistory}
\citation{ECHOIV}
\@writefile{toc}{\contentsline {subsection}{\numberline {2.1.1}Evoluci\IeC {\'o}n hist\IeC {\'o}rica de la Dom\IeC {\'o}tica}{8}{subsection.2.1.1}\protected@file@percent }
\@writefile{lof}{\contentsline {figure}{\numberline {2.1}{\ignorespaces Prototipo ECHO IV\relax }}{8}{figure.caption.10}\protected@file@percent }
\newlabel{fig:echoiv}{{2.1}{8}{Prototipo ECHO IV\relax }{figure.caption.10}{}}
\citation{X10:2015}
\citation{HASevolution:2009}
\@writefile{lof}{\contentsline {figure}{\numberline {2.2}{\ignorespaces Diagrama de sistema dom\IeC {\'o}tico en la actualidad\relax }}{9}{figure.caption.11}\protected@file@percent }
\newlabel{fig:smarthome}{{2.2}{9}{Diagrama de sistema domótico en la actualidad\relax }{figure.caption.11}{}}
\citation{X10:2015}
\citation{HASsecurity:2015}
\@writefile{toc}{\contentsline {subsection}{\numberline {2.1.2}Dom\IeC {\'o}tica en el \IeC {\'a}mbito de la Seguridad}{10}{subsection.2.1.2}\protected@file@percent }
\@writefile{lof}{\contentsline {figure}{\numberline {2.3}{\ignorespaces C\IeC {\'a}maras IP de vigilancia\relax }}{10}{figure.caption.12}\protected@file@percent }
\newlabel{fig:camaraip}{{2.3}{10}{Cámaras IP de vigilancia\relax }{figure.caption.12}{}}
\citation{HASIoT:2017}
\citation{HoneyImHomeVideo}
\citation{HASMonitSec:2016}
\citation{HASMonitSec2:2017}
\citation{HASMonitSec3:2016}
\citation{HASIoT:2017}
\citation{HASIoT:2017}
\citation{HASIoTReview:2018}
\@writefile{toc}{\contentsline {section}{\numberline {2.2}Integraci\IeC {\'o}n de la dom\IeC {\'o}tica en \textit  {Internet of Things}}{12}{section.2.2}\protected@file@percent }
\@writefile{lof}{\contentsline {figure}{\numberline {2.4}{\ignorespaces Placa Arduino Mega\relax }}{12}{figure.caption.13}\protected@file@percent }
\newlabel{fig:arduinomega}{{2.4}{12}{Placa Arduino Mega\relax }{figure.caption.13}{}}
\citation{Jabbar:2018}
\citation{HASIoT2:2016}
\citation{Chakraborty:2017}
\citation{HASIoTReview:2018}
\@writefile{lof}{\contentsline {figure}{\numberline {2.5}{\ignorespaces Arquitectura est\IeC {\'a}ndar IoT\relax }}{14}{figure.caption.14}\protected@file@percent }
\newlabel{fig:iotarquitectura}{{2.5}{14}{Arquitectura estándar IoT\relax }{figure.caption.14}{}}
\@setckpt{capitulos/estadoarte}{
\setcounter{page}{15}
\setcounter{equation}{0}
\setcounter{enumi}{6}
\setcounter{enumii}{0}
\setcounter{enumiii}{0}
\setcounter{enumiv}{0}
\setcounter{footnote}{7}
\setcounter{mpfootnote}{0}
\setcounter{part}{0}
\setcounter{chapter}{2}
\setcounter{section}{2}
\setcounter{subsection}{0}
\setcounter{subsubsection}{0}
\setcounter{paragraph}{0}
\setcounter{subparagraph}{0}
\setcounter{figure}{5}
\setcounter{table}{0}
\setcounter{parentequation}{0}
\setcounter{subfigure}{0}
\setcounter{lofdepth}{1}
\setcounter{subtable}{0}
\setcounter{lotdepth}{1}
\setcounter{lstnumber}{1}
\setcounter{@pps}{0}
\setcounter{@ppsavesec}{0}
\setcounter{@ppsaveapp}{0}
\setcounter{LT@tables}{0}
\setcounter{LT@chunks}{0}
\setcounter{Item}{6}
\setcounter{Hfootnote}{7}
\setcounter{bookmark@seq@number}{15}
\setcounter{caption@flags}{0}
\setcounter{ContinuedFloat}{0}
\setcounter{lstlisting}{0}
\setcounter{section@level}{1}
}
