\relax 
\providecommand\hyper@newdestlabel[2]{}
\@writefile{toc}{\contentsline {chapter}{\numberline {7}Gesti\IeC {\'o}n del proyecto}{137}{chapter.7}\protected@file@percent }
\@writefile{lof}{\addvspace {10\p@ }}
\@writefile{lot}{\addvspace {10\p@ }}
\@writefile{toc}{\contentsline {section}{\numberline {7.1}Planificaci\IeC {\'o}n}{137}{section.7.1}\protected@file@percent }
\@writefile{lof}{\contentsline {figure}{\numberline {7.1}{\ignorespaces Diagrama de Gantt del Proyecto\relax }}{138}{figure.caption.128}\protected@file@percent }
\newlabel{fig:gantt}{{7.1}{138}{Diagrama de Gantt del Proyecto\relax }{figure.caption.128}{}}
\citation{git}
\@writefile{toc}{\contentsline {section}{\numberline {7.2}Metodolog\IeC {\'\i }a de trabajo}{139}{section.7.2}\protected@file@percent }
\@writefile{toc}{\contentsline {subsection}{\numberline {7.2.1}Almacenamiento y Control de Versiones}{139}{subsection.7.2.1}\protected@file@percent }
\@writefile{lof}{\contentsline {figure}{\numberline {7.2}{\ignorespaces Arquitectura del proyecto git\relax }}{139}{figure.caption.129}\protected@file@percent }
\newlabel{fig:git}{{7.2}{139}{Arquitectura del proyecto git\relax }{figure.caption.129}{}}
\citation{kanban}
\@writefile{toc}{\contentsline {subsection}{\numberline {7.2.2}Seguimiento del proyecto}{140}{subsection.7.2.2}\protected@file@percent }
\@writefile{lof}{\contentsline {figure}{\numberline {7.3}{\ignorespaces Etiquetas Kanban\relax }}{140}{figure.caption.130}\protected@file@percent }
\newlabel{fig:etiquetaskanban}{{7.3}{140}{Etiquetas Kanban\relax }{figure.caption.130}{}}
\@writefile{lof}{\contentsline {figure}{\numberline {7.4}{\ignorespaces Tablero Kanban\relax }}{141}{figure.caption.131}\protected@file@percent }
\newlabel{fig:tablerokanban}{{7.4}{141}{Tablero Kanban\relax }{figure.caption.131}{}}
\@writefile{toc}{\contentsline {section}{\numberline {7.3}Presupuesto}{142}{section.7.3}\protected@file@percent }
\@writefile{lot}{\contentsline {table}{\numberline {7.1}{\ignorespaces Presupuesto Material\relax }}{142}{table.caption.132}\protected@file@percent }
\newlabel{tab:tabla_presupuesto}{{7.1}{142}{Presupuesto Material\relax }{table.caption.132}{}}
\@setckpt{capitulos/gestion}{
\setcounter{page}{143}
\setcounter{equation}{0}
\setcounter{enumi}{5}
\setcounter{enumii}{0}
\setcounter{enumiii}{0}
\setcounter{enumiv}{0}
\setcounter{footnote}{2}
\setcounter{mpfootnote}{0}
\setcounter{part}{0}
\setcounter{chapter}{7}
\setcounter{section}{3}
\setcounter{subsection}{0}
\setcounter{subsubsection}{0}
\setcounter{paragraph}{0}
\setcounter{subparagraph}{0}
\setcounter{figure}{4}
\setcounter{table}{1}
\setcounter{parentequation}{0}
\setcounter{subfigure}{0}
\setcounter{lofdepth}{1}
\setcounter{subtable}{0}
\setcounter{lotdepth}{1}
\setcounter{lstnumber}{9}
\setcounter{@pps}{0}
\setcounter{@ppsavesec}{0}
\setcounter{@ppsaveapp}{0}
\setcounter{LT@tables}{5}
\setcounter{LT@chunks}{5}
\setcounter{Item}{15}
\setcounter{Hfootnote}{40}
\setcounter{bookmark@seq@number}{70}
\setcounter{caption@flags}{2}
\setcounter{ContinuedFloat}{0}
\setcounter{lstlisting}{0}
\setcounter{section@level}{1}
}
