\relax 
\providecommand\hyper@newdestlabel[2]{}
\@writefile{toc}{\contentsline {chapter}{\numberline {3}Descripci\IeC {\'o}n del Hardware desarrollado}{15}{chapter.3}\protected@file@percent }
\@writefile{lof}{\addvspace {10\p@ }}
\@writefile{lot}{\addvspace {10\p@ }}
\newlabel{chap:hardware}{{3}{15}{Descripción del Hardware desarrollado}{chapter.3}{}}
\@writefile{toc}{\contentsline {section}{\numberline {3.1}Placa Microcontroladora: Arduino UNO}{15}{section.3.1}\protected@file@percent }
\@writefile{lof}{\contentsline {figure}{\numberline {3.1}{\ignorespaces Placa Arduino UNO\relax }}{16}{figure.caption.15}\protected@file@percent }
\newlabel{fig:arduinouno}{{3.1}{16}{Placa Arduino UNO\relax }{figure.caption.15}{}}
\@writefile{toc}{\contentsline {section}{\numberline {3.2}Dispositivo Gateway: Raspberry Pi 3 B}{17}{section.3.2}\protected@file@percent }
\@writefile{lof}{\contentsline {figure}{\numberline {3.2}{\ignorespaces Ordenador Raspberry Pi 3 B\relax }}{17}{figure.caption.16}\protected@file@percent }
\newlabel{fig:raspberrypi}{{3.2}{17}{Ordenador Raspberry Pi 3 B\relax }{figure.caption.16}{}}
\@writefile{toc}{\contentsline {section}{\numberline {3.3}Sensores y Actuadores}{18}{section.3.3}\protected@file@percent }
\@writefile{toc}{\contentsline {subsection}{\numberline {3.3.1}Sensor de Temperatura y Humedad}{18}{subsection.3.3.1}\protected@file@percent }
\@writefile{lof}{\contentsline {figure}{\numberline {3.3}{\ignorespaces Sensor DHT22\relax }}{18}{figure.caption.17}\protected@file@percent }
\newlabel{fig:dht22}{{3.3}{18}{Sensor DHT22\relax }{figure.caption.17}{}}
\@writefile{lot}{\contentsline {table}{\numberline {3.1}{\ignorespaces Comparativa t\IeC {\'e}cnica del modelo DHT11 y DHT22\relax }}{19}{table.caption.18}\protected@file@percent }
\newlabel{tab:tabla_dht11dht22}{{3.1}{19}{Comparativa técnica del modelo DHT11 y DHT22\relax }{table.caption.18}{}}
\@writefile{toc}{\contentsline {subsection}{\numberline {3.3.2}Sensor de Detecci\IeC {\'o}n de Movimiento}{19}{subsection.3.3.2}\protected@file@percent }
\@writefile{lof}{\contentsline {figure}{\numberline {3.4}{\ignorespaces Sensor PIR\relax }}{20}{figure.caption.19}\protected@file@percent }
\newlabel{fig:pir}{{3.4}{20}{Sensor PIR\relax }{figure.caption.19}{}}
\@writefile{lof}{\contentsline {figure}{\numberline {3.5}{\ignorespaces Diagrama de funcionamiento - Sensor PIR\relax }}{20}{figure.caption.20}\protected@file@percent }
\newlabel{fig:pirdiag}{{3.5}{20}{Diagrama de funcionamiento - Sensor PIR\relax }{figure.caption.20}{}}
\@writefile{toc}{\contentsline {subsection}{\numberline {3.3.3}Sensor de Detecci\IeC {\'o}n de Gases}{20}{subsection.3.3.3}\protected@file@percent }
\@writefile{lof}{\contentsline {figure}{\numberline {3.6}{\ignorespaces Sensor MQ-2\relax }}{21}{figure.caption.21}\protected@file@percent }
\newlabel{fig:mq2}{{3.6}{21}{Sensor MQ-2\relax }{figure.caption.21}{}}
\@writefile{toc}{\contentsline {subsection}{\numberline {3.3.4}Sensor de Detecci\IeC {\'o}n de Inundaci\IeC {\'o}n}{22}{subsection.3.3.4}\protected@file@percent }
\@writefile{lof}{\contentsline {figure}{\numberline {3.7}{\ignorespaces Sensor de Agua\relax }}{22}{figure.caption.22}\protected@file@percent }
\newlabel{fig:agua}{{3.7}{22}{Sensor de Agua\relax }{figure.caption.22}{}}
\@writefile{toc}{\contentsline {subsection}{\numberline {3.3.5}Zumbador de Alarma}{22}{subsection.3.3.5}\protected@file@percent }
\@writefile{lof}{\contentsline {figure}{\numberline {3.8}{\ignorespaces Zumbador\relax }}{23}{figure.caption.23}\protected@file@percent }
\newlabel{fig:zumbador}{{3.8}{23}{Zumbador\relax }{figure.caption.23}{}}
\@writefile{toc}{\contentsline {subsection}{\numberline {3.3.6}C\IeC {\'a}mara de vigilancia}{23}{subsection.3.3.6}\protected@file@percent }
\@writefile{lof}{\contentsline {figure}{\numberline {3.9}{\ignorespaces C\IeC {\'a}mara de vigilancia\relax }}{24}{figure.caption.24}\protected@file@percent }
\newlabel{fig:camara}{{3.9}{24}{Cámara de vigilancia\relax }{figure.caption.24}{}}
\@writefile{toc}{\contentsline {section}{\numberline {3.4}Diagrama de Conexiones}{25}{section.3.4}\protected@file@percent }
\newlabel{fig:diagconexiones}{{\caption@xref {fig:diagconexiones}{ on input line 316}}{25}{Diagrama de Conexiones}{figure.caption.25}{}}
\@writefile{toc}{\contentsline {section}{\numberline {3.5}Maqueta}{26}{section.3.5}\protected@file@percent }
\@writefile{lof}{\contentsline {figure}{\numberline {3.10}{\ignorespaces Maqueta en dise\IeC {\~n}o 3D\relax }}{26}{figure.caption.26}\protected@file@percent }
\newlabel{fig:fusion}{{3.10}{26}{Maqueta en diseño 3D\relax }{figure.caption.26}{}}
\@writefile{lof}{\contentsline {figure}{\numberline {3.11}{\ignorespaces Maqueta - Evoluci\IeC {\'o}n en la construcci\IeC {\'o}n\relax }}{27}{figure.caption.27}\protected@file@percent }
\newlabel{fig:pasos}{{3.11}{27}{Maqueta - Evolución en la construcción\relax }{figure.caption.27}{}}
\@writefile{lof}{\contentsline {figure}{\numberline {3.12}{\ignorespaces Maqueta - Vista general\relax }}{27}{figure.caption.28}\protected@file@percent }
\newlabel{fig:isometrica}{{3.12}{27}{Maqueta - Vista general\relax }{figure.caption.28}{}}
\@writefile{lof}{\contentsline {figure}{\numberline {3.13}{\ignorespaces Maqueta - Vista en planta\relax }}{28}{figure.caption.29}\protected@file@percent }
\newlabel{fig:planta}{{3.13}{28}{Maqueta - Vista en planta\relax }{figure.caption.29}{}}
\@writefile{lof}{\contentsline {figure}{\numberline {3.14}{\ignorespaces Maqueta - Detalle Sal\IeC {\'o}n\relax }}{28}{figure.caption.30}\protected@file@percent }
\newlabel{fig:camarapuerta}{{3.14}{28}{Maqueta - Detalle Salón\relax }{figure.caption.30}{}}
\@writefile{lof}{\contentsline {figure}{\numberline {3.15}{\ignorespaces Maqueta - Detalle Cocina\relax }}{28}{figure.caption.31}\protected@file@percent }
\newlabel{fig:aguagas}{{3.15}{28}{Maqueta - Detalle Cocina\relax }{figure.caption.31}{}}
\@writefile{lof}{\contentsline {figure}{\numberline {3.16}{\ignorespaces Maqueta - Control y Gateway\relax }}{29}{figure.caption.32}\protected@file@percent }
\newlabel{fig:plantaproto}{{3.16}{29}{Maqueta - Control y Gateway\relax }{figure.caption.32}{}}
\@writefile{lof}{\contentsline {figure}{\numberline {3.17}{\ignorespaces Maqueta - Avisos de Alarma\relax }}{29}{figure.caption.33}\protected@file@percent }
\newlabel{fig:alarmas}{{3.17}{29}{Maqueta - Avisos de Alarma\relax }{figure.caption.33}{}}
\@setckpt{capitulos/hardware}{
\setcounter{page}{30}
\setcounter{equation}{0}
\setcounter{enumi}{6}
\setcounter{enumii}{0}
\setcounter{enumiii}{0}
\setcounter{enumiv}{0}
\setcounter{footnote}{12}
\setcounter{mpfootnote}{0}
\setcounter{part}{0}
\setcounter{chapter}{3}
\setcounter{section}{5}
\setcounter{subsection}{0}
\setcounter{subsubsection}{0}
\setcounter{paragraph}{0}
\setcounter{subparagraph}{0}
\setcounter{figure}{17}
\setcounter{table}{1}
\setcounter{parentequation}{0}
\setcounter{subfigure}{0}
\setcounter{lofdepth}{1}
\setcounter{subtable}{0}
\setcounter{lotdepth}{1}
\setcounter{lstnumber}{1}
\setcounter{@pps}{0}
\setcounter{@ppsavesec}{0}
\setcounter{@ppsaveapp}{0}
\setcounter{LT@tables}{0}
\setcounter{LT@chunks}{0}
\setcounter{Item}{6}
\setcounter{Hfootnote}{19}
\setcounter{bookmark@seq@number}{27}
\setcounter{caption@flags}{0}
\setcounter{ContinuedFloat}{0}
\setcounter{lstlisting}{0}
\setcounter{section@level}{1}
}
