\relax 
\providecommand\hyper@newdestlabel[2]{}
\gdef \LT@ii {\LT@entry 
    {1}{26.58107pt}\LT@entry 
    {1}{194.05234pt}\LT@entry 
    {1}{196.89761pt}\LT@entry 
    {1}{55.07912pt}}
\@writefile{toc}{\contentsline {chapter}{\numberline {6}Pruebas y resultados}{129}{chapter.6}\protected@file@percent }
\@writefile{lof}{\addvspace {10\p@ }}
\@writefile{lot}{\addvspace {10\p@ }}
\@writefile{toc}{\contentsline {section}{\numberline {6.1}Pruebas}{129}{section.6.1}\protected@file@percent }
\@writefile{lot}{\contentsline {table}{\numberline {6.1}{\ignorespaces Escenario de prueba 1\relax }}{129}{table.6.1}\protected@file@percent }
\newlabel{tab:test_case_1}{{6.1}{129}{Escenario de prueba 1\relax }{table.6.1}{}}
\@writefile{lot}{\contentsline {table}{\numberline {6.2}{\ignorespaces Escenario de prueba 2\relax }}{131}{table.6.2}\protected@file@percent }
\newlabel{tab:test_case_2}{{6.2}{131}{Escenario de prueba 2\relax }{table.6.2}{}}
\gdef \LT@iii {\LT@entry 
    {1}{26.58107pt}\LT@entry 
    {1}{194.05234pt}\LT@entry 
    {1}{196.89761pt}\LT@entry 
    {1}{55.07912pt}}
\gdef \LT@iv {\LT@entry 
    {1}{26.58107pt}\LT@entry 
    {1}{194.05234pt}\LT@entry 
    {1}{196.89761pt}\LT@entry 
    {1}{55.07912pt}}
\gdef \LT@v {\LT@entry 
    {1}{26.58107pt}\LT@entry 
    {1}{194.05234pt}\LT@entry 
    {1}{196.89761pt}\LT@entry 
    {1}{55.07912pt}}
\@writefile{lot}{\contentsline {table}{\numberline {6.3}{\ignorespaces Escenario de prueba 3\relax }}{133}{table.6.3}\protected@file@percent }
\newlabel{tab:test_case_3}{{6.3}{133}{Escenario de prueba 3\relax }{table.6.3}{}}
\@writefile{lot}{\contentsline {table}{\numberline {6.4}{\ignorespaces Escenario de prueba 4\relax }}{133}{table.6.4}\protected@file@percent }
\newlabel{tab:test_case_4}{{6.4}{133}{Escenario de prueba 4\relax }{table.6.4}{}}
\@writefile{toc}{\contentsline {section}{\numberline {6.2}Resultados}{134}{section.6.2}\protected@file@percent }
\@setckpt{capitulos/resultados}{
\setcounter{page}{136}
\setcounter{equation}{0}
\setcounter{enumi}{5}
\setcounter{enumii}{0}
\setcounter{enumiii}{0}
\setcounter{enumiv}{0}
\setcounter{footnote}{0}
\setcounter{mpfootnote}{0}
\setcounter{part}{0}
\setcounter{chapter}{6}
\setcounter{section}{2}
\setcounter{subsection}{0}
\setcounter{subsubsection}{0}
\setcounter{paragraph}{0}
\setcounter{subparagraph}{0}
\setcounter{figure}{0}
\setcounter{table}{4}
\setcounter{parentequation}{0}
\setcounter{subfigure}{0}
\setcounter{lofdepth}{1}
\setcounter{subtable}{0}
\setcounter{lotdepth}{1}
\setcounter{lstnumber}{9}
\setcounter{@pps}{0}
\setcounter{@ppsavesec}{0}
\setcounter{@ppsaveapp}{0}
\setcounter{LT@tables}{5}
\setcounter{LT@chunks}{5}
\setcounter{Item}{15}
\setcounter{Hfootnote}{38}
\setcounter{bookmark@seq@number}{64}
\setcounter{caption@flags}{0}
\setcounter{ContinuedFloat}{0}
\setcounter{lstlisting}{0}
\setcounter{section@level}{1}
}
