\relax 
\providecommand\hyper@newdestlabel[2]{}
\@writefile{toc}{\contentsline {chapter}{\numberline {5}Descripci\IeC {\'o}n del Software desarrollado}{51}{chapter.5}\protected@file@percent }
\@writefile{lof}{\addvspace {10\p@ }}
\@writefile{lot}{\addvspace {10\p@ }}
\newlabel{chap:software}{{5}{51}{Descripción del Software desarrollado}{chapter.5}{}}
\@writefile{toc}{\contentsline {section}{\numberline {5.1}Programa de Control}{51}{section.5.1}\protected@file@percent }
\newlabel{code:sidocsarduino}{{5.1}{52}{Código de \textit {SIDOCS.ino}}{lstlisting.5.1}{}}
\@writefile{lol}{\contentsline {lstlisting}{\numberline {5.1}C\IeC {\'o}digo de \textit  {SIDOCS.ino}}{52}{lstlisting.5.1}\protected@file@percent }
\@writefile{toc}{\contentsline {subsection}{\numberline {5.1.1}M\IeC {\'e}todo \textit  {setup()}}{52}{subsection.5.1.1}\protected@file@percent }
\@writefile{lof}{\contentsline {figure}{\numberline {5.1}{\ignorespaces Diagrama de flujo general Arduino\relax }}{52}{figure.caption.51}\protected@file@percent }
\newlabel{fig:arduinodiagflujogeneral}{{5.1}{52}{Diagrama de flujo general Arduino\relax }{figure.caption.51}{}}
\@writefile{lof}{\contentsline {figure}{\numberline {5.2}{\ignorespaces Arduino - Inicializaci\IeC {\'o}n y Sincronizaci\IeC {\'o}n\relax }}{53}{figure.caption.52}\protected@file@percent }
\newlabel{fig:diagflujoarduinoinisincro}{{5.2}{53}{Arduino - Inicialización y Sincronización\relax }{figure.caption.52}{}}
\@writefile{toc}{\contentsline {subsection}{\numberline {5.1.2}M\IeC {\'e}todo \textit  {loop()}}{54}{subsection.5.1.2}\protected@file@percent }
\@writefile{lof}{\contentsline {figure}{\numberline {5.3}{\ignorespaces Diagrama de flujo Arduino - Leer y Evaluar\relax }}{55}{figure.caption.53}\protected@file@percent }
\newlabel{fig:arduinodiagflujoleerevaluar}{{5.3}{55}{Diagrama de flujo Arduino - Leer y Evaluar\relax }{figure.caption.53}{}}
\@writefile{lof}{\contentsline {figure}{\numberline {5.4}{\ignorespaces Diagrama de flujo Arduino - Detalle evaluar y reset\relax }}{56}{figure.caption.54}\protected@file@percent }
\newlabel{fig:arduinodiagflujoevareset}{{5.4}{56}{Diagrama de flujo Arduino - Detalle evaluar y reset\relax }{figure.caption.54}{}}
\@writefile{lof}{\contentsline {figure}{\numberline {5.5}{\ignorespaces Diagrama de flujo Arduino - Detalle evaluar y reset\relax }}{57}{figure.caption.55}\protected@file@percent }
\newlabel{fig:arduinodiagflujocomunicacion}{{5.5}{57}{Diagrama de flujo Arduino - Detalle evaluar y reset\relax }{figure.caption.55}{}}
\@writefile{toc}{\contentsline {section}{\numberline {5.2}Programa Gateway}{58}{section.5.2}\protected@file@percent }
\newlabel{code:gatewaymain}{{5.2}{58}{Extracto de \textit {gateway.py}}{lstlisting.5.2}{}}
\@writefile{lol}{\contentsline {lstlisting}{\numberline {5.2}Extracto de \textit  {gateway.py}}{58}{lstlisting.5.2}\protected@file@percent }
\@writefile{toc}{\contentsline {subsection}{\numberline {5.2.1}Hilo principal}{59}{subsection.5.2.1}\protected@file@percent }
\@writefile{lof}{\contentsline {figure}{\numberline {5.6}{\ignorespaces Diagrama de flujo Gateway - Hilo principal\relax }}{60}{figure.caption.56}\protected@file@percent }
\newlabel{fig:threadarduino}{{5.6}{60}{Diagrama de flujo Gateway - Hilo principal\relax }{figure.caption.56}{}}
\@writefile{lof}{\contentsline {figure}{\numberline {5.7}{\ignorespaces Diagrama de flujo Gateway - Sincronizar comunicaci\IeC {\'o}n con Arduino\relax }}{61}{figure.caption.57}\protected@file@percent }
\newlabel{fig:sincronizar}{{5.7}{61}{Diagrama de flujo Gateway - Sincronizar comunicación con Arduino\relax }{figure.caption.57}{}}
\@writefile{lof}{\contentsline {figure}{\numberline {5.8}{\ignorespaces Diagrama de flujo Gateway - Leer par\IeC {\'a}metros del servidor API REST\relax }}{62}{figure.caption.58}\protected@file@percent }
\newlabel{fig:leerparametros}{{5.8}{62}{Diagrama de flujo Gateway - Leer parámetros del servidor API REST\relax }{figure.caption.58}{}}
\@writefile{lof}{\contentsline {figure}{\numberline {5.9}{\ignorespaces Diagrama de flujo Gateway - Enviar par\IeC {\'a}metros/recibir datos de Arduino\relax }}{63}{figure.caption.59}\protected@file@percent }
\newlabel{fig:enviarparametrosrecibirdatos}{{5.9}{63}{Diagrama de flujo Gateway - Enviar parámetros/recibir datos de Arduino\relax }{figure.caption.59}{}}
\@writefile{lof}{\contentsline {figure}{\numberline {5.10}{\ignorespaces Diagrama de flujo Gateway - Enviar datos al servidor API REST\relax }}{64}{figure.caption.60}\protected@file@percent }
\newlabel{fig:enviardatos}{{5.10}{64}{Diagrama de flujo Gateway - Enviar datos al servidor API REST\relax }{figure.caption.60}{}}
\@writefile{toc}{\contentsline {subsection}{\numberline {5.2.2}Hilo IP p\IeC {\'u}blica}{65}{subsection.5.2.2}\protected@file@percent }
\@writefile{lof}{\contentsline {figure}{\numberline {5.11}{\ignorespaces Diagrama de flujo Gateway - Hilo actualizaci\IeC {\'o}n IP P\IeC {\'u}blica\relax }}{65}{figure.caption.61}\protected@file@percent }
\newlabel{fig:threadip}{{5.11}{65}{Diagrama de flujo Gateway - Hilo actualización IP Pública\relax }{figure.caption.61}{}}
\@writefile{toc}{\contentsline {subsection}{\numberline {5.2.3}Hilo de autenticaci\IeC {\'o}n}{66}{subsection.5.2.3}\protected@file@percent }
\newlabel{code:communicationsauth}{{5.3}{66}{Extracto de \textit {communications.py} - Clase RestApiAutenticacion}{lstlisting.5.3}{}}
\@writefile{lol}{\contentsline {lstlisting}{\numberline {5.3}Extracto de \textit  {communications.py} - Clase RestApiAutenticacion}{66}{lstlisting.5.3}\protected@file@percent }
\@writefile{lof}{\contentsline {figure}{\numberline {5.12}{\ignorespaces Diagrama de flujo Gateway - Hilos de Acceso y refresco de token JWT\relax }}{67}{figure.caption.62}\protected@file@percent }
\newlabel{fig:threadaccederrefrescar}{{5.12}{67}{Diagrama de flujo Gateway - Hilos de Acceso y refresco de token JWT\relax }{figure.caption.62}{}}
\@writefile{toc}{\contentsline {subsection}{\numberline {5.2.4}Hilo de refresco de token}{67}{subsection.5.2.4}\protected@file@percent }
\newlabel{code:communicationsrefrescar}{{5.4}{68}{Extracto de \textit {communications.py} - Clase RestApiAutenticacion}{lstlisting.5.4}{}}
\@writefile{lol}{\contentsline {lstlisting}{\numberline {5.4}Extracto de \textit  {communications.py} - Clase RestApiAutenticacion}{68}{lstlisting.5.4}\protected@file@percent }
\@writefile{toc}{\contentsline {section}{\numberline {5.3}Aplicaci\IeC {\'o}n API REST}{68}{section.5.3}\protected@file@percent }
\newlabel{sec:apirest}{{5.3}{68}{Aplicación API REST}{section.5.3}{}}
\newlabel{code:peticionjsonregistro}{{5.5}{69}{Ejemplo cuerpo de petición JSON - Registro Usuario}{lstlisting.5.5}{}}
\@writefile{lol}{\contentsline {lstlisting}{\numberline {5.5}Ejemplo cuerpo de petici\IeC {\'o}n JSON - Registro Usuario}{69}{lstlisting.5.5}\protected@file@percent }
\newlabel{code:cabecerapeticion}{{5.6}{70}{Ejemplo cabecera de petición - Autenticación}{lstlisting.5.6}{}}
\@writefile{lol}{\contentsline {lstlisting}{\numberline {5.6}Ejemplo cabecera de petici\IeC {\'o}n - Autenticaci\IeC {\'o}n}{70}{lstlisting.5.6}\protected@file@percent }
\@writefile{lot}{\contentsline {table}{\numberline {5.1}{\ignorespaces C\IeC {\'o}digos de Estado HTTP/HTTPS\relax }}{70}{table.caption.63}\protected@file@percent }
\newlabel{tab:tabla_codigo_estados}{{5.1}{70}{Códigos de Estado HTTP/HTTPS\relax }{table.caption.63}{}}
\@writefile{lof}{\contentsline {figure}{\numberline {5.13}{\ignorespaces Ejemplo de funcionamiento Django Rest Framework\relax }}{71}{figure.caption.64}\protected@file@percent }
\newlabel{fig:ejemplodrf}{{5.13}{71}{Ejemplo de funcionamiento Django Rest Framework\relax }{figure.caption.64}{}}
\@writefile{lol}{\contentsline {lstlisting}{\numberline {5.7}Creaci\IeC {\'o}n de proyecto y aplicaci\IeC {\'o}n DRF}{71}{lstlisting.5.7}\protected@file@percent }
\@writefile{lof}{\contentsline {figure}{\numberline {5.14}{\ignorespaces Proyecto DRF - Directorios y Archivos\relax }}{72}{figure.caption.65}\protected@file@percent }
\newlabel{fig:drfarchivos}{{5.14}{72}{Proyecto DRF - Directorios y Archivos\relax }{figure.caption.65}{}}
\@writefile{toc}{\contentsline {subsection}{\numberline {5.3.1}Modelo de datos}{72}{subsection.5.3.1}\protected@file@percent }
\newlabel{code:ejemplomodeloclase}{{5.8}{72}{Ejemplo de modelo de clase - Módulo models.py}{lstlisting.5.8}{}}
\@writefile{lol}{\contentsline {lstlisting}{\numberline {5.8}Ejemplo de modelo de clase - M\IeC {\'o}dulo models.py}{72}{lstlisting.5.8}\protected@file@percent }
\@writefile{lol}{\contentsline {lstlisting}{\numberline {5.9}Migraci\IeC {\'o}n del modelo DRF a la base de datos}{73}{lstlisting.5.9}\protected@file@percent }
\@writefile{lof}{\contentsline {figure}{\numberline {5.15}{\ignorespaces M\IeC {\'o}dulo \textit  {models.py} - Modelo de datos SIDOCS\relax }}{73}{figure.caption.66}\protected@file@percent }
\newlabel{fig:dbsidocsdiagrama}{{5.15}{73}{Módulo \textit {models.py} - Modelo de datos SIDOCS\relax }{figure.caption.66}{}}
\@writefile{lof}{\contentsline {figure}{\numberline {5.16}{\ignorespaces M\IeC {\'o}dulo \textit  {models.py} - Modelo de datos Auth \& FCM\relax }}{75}{figure.caption.67}\protected@file@percent }
\newlabel{fig:dbauthdiagrama}{{5.16}{75}{Módulo \textit {models.py} - Modelo de datos Auth \& FCM\relax }{figure.caption.67}{}}
\@writefile{toc}{\contentsline {subsection}{\numberline {5.3.2}Permisos}{76}{subsection.5.3.2}\protected@file@percent }
\@writefile{lot}{\contentsline {table}{\numberline {5.2}{\ignorespaces Matriz de permisos por grupo\relax }}{76}{table.caption.68}\protected@file@percent }
\newlabel{tab:matriz_permisos}{{5.2}{76}{Matriz de permisos por grupo\relax }{table.caption.68}{}}
\@writefile{toc}{\contentsline {subsection}{\numberline {5.3.3}URLs}{76}{subsection.5.3.3}\protected@file@percent }
\@writefile{lot}{\contentsline {table}{\numberline {5.3}{\ignorespaces Colecci\IeC {\'o}n de rutas de proyecto - \textit  {restapi}\relax }}{76}{table.caption.69}\protected@file@percent }
\newlabel{tab:urls_restapi}{{5.3}{76}{Colección de rutas de proyecto - \textit {restapi}\relax }{table.caption.69}{}}
\@writefile{lof}{\contentsline {figure}{\numberline {5.17}{\ignorespaces Sitio web de administraci\IeC {\'o}n Django\relax }}{77}{figure.caption.70}\protected@file@percent }
\newlabel{fig:djangoadmin}{{5.17}{77}{Sitio web de administración Django\relax }{figure.caption.70}{}}
\@writefile{lot}{\contentsline {table}{\numberline {5.4}{\ignorespaces Colecci\IeC {\'o}n de rutas de aplicaci\IeC {\'o}n - \textit  {restapp}\relax }}{77}{table.caption.71}\protected@file@percent }
\newlabel{tab:urls_restapp}{{5.4}{77}{Colección de rutas de aplicación - \textit {restapp}\relax }{table.caption.71}{}}
\@writefile{toc}{\contentsline {subsection}{\numberline {5.3.4}Vistas}{78}{subsection.5.3.4}\protected@file@percent }
\newlabel{ssc:drfvistas}{{5.3.4}{78}{Vistas}{subsection.5.3.4}{}}
\newlabel{code:ejemplovistaclase}{{5.10}{79}{Ejemplo de Vista genérica - Módulo views.py}{lstlisting.5.10}{}}
\@writefile{lol}{\contentsline {lstlisting}{\numberline {5.10}Ejemplo de Vista gen\IeC {\'e}rica - M\IeC {\'o}dulo views.py}{79}{lstlisting.5.10}\protected@file@percent }
\@writefile{lot}{\contentsline {table}{\numberline {5.5}{\ignorespaces Colecci\IeC {\'o}n de Vistas\relax }}{80}{table.caption.72}\protected@file@percent }
\newlabel{tab:view_restapp}{{5.5}{80}{Colección de Vistas\relax }{table.caption.72}{}}
\@writefile{toc}{\contentsline {subsection}{\numberline {5.3.5}Serializador}{80}{subsection.5.3.5}\protected@file@percent }
\newlabel{ssc:drfserializador}{{5.3.5}{80}{Serializador}{subsection.5.3.5}{}}
\newlabel{code:ejemploserializador}{{5.11}{80}{Ejemplo de Serializador - Módulo serializers.py}{lstlisting.5.11}{}}
\@writefile{lol}{\contentsline {lstlisting}{\numberline {5.11}Ejemplo de Serializador - M\IeC {\'o}dulo serializers.py}{80}{lstlisting.5.11}\protected@file@percent }
\@writefile{lof}{\contentsline {figure}{\numberline {5.18}{\ignorespaces Diagrama de proceso - Serializaci\IeC {\'o}n en registro de usuario\relax }}{81}{figure.caption.73}\protected@file@percent }
\newlabel{fig:diagramaregistro}{{5.18}{81}{Diagrama de proceso - Serialización en registro de usuario\relax }{figure.caption.73}{}}
\@writefile{toc}{\contentsline {subsection}{\numberline {5.3.6}Autenticaci\IeC {\'o}n - JSON Web Tokens}{82}{subsection.5.3.6}\protected@file@percent }
\@writefile{lof}{\contentsline {figure}{\numberline {5.19}{\ignorespaces Ejemplo de token JWT\relax }}{82}{figure.caption.74}\protected@file@percent }
\newlabel{fig:tokenjwt}{{5.19}{82}{Ejemplo de token JWT\relax }{figure.caption.74}{}}
\newlabel{code:headerjwt}{{5.12}{82}{Cabecera del token JWT decodificado}{lstlisting.5.12}{}}
\@writefile{lol}{\contentsline {lstlisting}{\numberline {5.12}Cabecera del token JWT decodificado}{82}{lstlisting.5.12}\protected@file@percent }
\newlabel{code:payloadjwt}{{5.13}{83}{Carga útil del token JWT decodificado}{lstlisting.5.13}{}}
\@writefile{lol}{\contentsline {lstlisting}{\numberline {5.13}Carga \IeC {\'u}til del token JWT decodificado}{83}{lstlisting.5.13}\protected@file@percent }
\newlabel{code:signaturejwt}{{5.14}{83}{Firma del token JWT decodificado}{lstlisting.5.14}{}}
\@writefile{lol}{\contentsline {lstlisting}{\numberline {5.14}Firma del token JWT decodificado}{83}{lstlisting.5.14}\protected@file@percent }
\@writefile{lof}{\contentsline {figure}{\numberline {5.20}{\ignorespaces Comunicaci\IeC {\'o}n cliente-servidor con seguridad JWT\relax }}{84}{figure.caption.75}\protected@file@percent }
\newlabel{fig:jwtservidor}{{5.20}{84}{Comunicación cliente-servidor con seguridad JWT\relax }{figure.caption.75}{}}
\newlabel{code:ejemplocabecerajwt}{{5.15}{84}{Ejemplo de cabecera de petición con token JWT}{lstlisting.5.15}{}}
\@writefile{lol}{\contentsline {lstlisting}{\numberline {5.15}Ejemplo de cabecera de petici\IeC {\'o}n con token JWT}{84}{lstlisting.5.15}\protected@file@percent }
\newlabel{code:jwtconfig}{{5.16}{84}{Configuración JWT - módulo settings.py}{lstlisting.5.16}{}}
\@writefile{lol}{\contentsline {lstlisting}{\numberline {5.16}Configuraci\IeC {\'o}n JWT - m\IeC {\'o}dulo settings.py}{84}{lstlisting.5.16}\protected@file@percent }
\@writefile{lof}{\contentsline {figure}{\numberline {5.21}{\ignorespaces Diagrama funcionamiento JWT\relax }}{85}{figure.caption.76}\protected@file@percent }
\newlabel{fig:jwtdiagrama2}{{5.21}{85}{Diagrama funcionamiento JWT\relax }{figure.caption.76}{}}
\@writefile{toc}{\contentsline {subsection}{\numberline {5.3.7}Firebase Cloud Messages - Servidor}{85}{subsection.5.3.7}\protected@file@percent }
\@writefile{lof}{\contentsline {figure}{\numberline {5.22}{\ignorespaces Clave privada del proyecto FCM - Firebase\relax }}{86}{figure.caption.77}\protected@file@percent }
\newlabel{fig:firebaseclave}{{5.22}{86}{Clave privada del proyecto FCM - Firebase\relax }{figure.caption.77}{}}
\newlabel{code:fcmconfig}{{5.17}{86}{Configuración FCM - módulo settings.py}{lstlisting.5.17}{}}
\@writefile{lol}{\contentsline {lstlisting}{\numberline {5.17}Configuraci\IeC {\'o}n FCM - m\IeC {\'o}dulo settings.py}{86}{lstlisting.5.17}\protected@file@percent }
\@writefile{lof}{\contentsline {figure}{\numberline {5.23}{\ignorespaces Diagrama funcionamiento DRF-FCM-Android\relax }}{88}{figure.caption.78}\protected@file@percent }
\newlabel{fig:fcmdrfdiagrama}{{5.23}{88}{Diagrama funcionamiento DRF-FCM-Android\relax }{figure.caption.78}{}}
\@writefile{toc}{\contentsline {subsection}{\numberline {5.3.8}Servicios}{89}{subsection.5.3.8}\protected@file@percent }
\@writefile{lof}{\contentsline {figure}{\numberline {5.24}{\ignorespaces Diagrama de flujo - m\IeC {\'o}dulo \textit  {services.py}\relax }}{89}{figure.caption.79}\protected@file@percent }
\newlabel{fig:diagramaservicios}{{5.24}{89}{Diagrama de flujo - módulo \textit {services.py}\relax }{figure.caption.79}{}}
\@writefile{lof}{\contentsline {figure}{\numberline {5.25}{\ignorespaces Captura del email de alerta - Ejemplo de allanamiento\relax }}{90}{figure.caption.80}\protected@file@percent }
\newlabel{fig:emailupm}{{5.25}{90}{Captura del email de alerta - Ejemplo de allanamiento\relax }{figure.caption.80}{}}
\@writefile{toc}{\contentsline {subsection}{\numberline {5.3.9}Documentaci\IeC {\'o}n}{90}{subsection.5.3.9}\protected@file@percent }
\newlabel{code:swaggerconfig}{{5.18}{91}{Configuración Swagger - módulo settings.py}{lstlisting.5.18}{}}
\@writefile{lol}{\contentsline {lstlisting}{\numberline {5.18}Configuraci\IeC {\'o}n Swagger - m\IeC {\'o}dulo settings.py}{91}{lstlisting.5.18}\protected@file@percent }
\@writefile{lof}{\contentsline {figure}{\numberline {5.26}{\ignorespaces Captura de p\IeC {\'a}gina Documentaci\IeC {\'o}n Swagger\relax }}{91}{figure.caption.81}\protected@file@percent }
\newlabel{fig:documentacion}{{5.26}{91}{Captura de página Documentación Swagger\relax }{figure.caption.81}{}}
\@writefile{lof}{\contentsline {figure}{\numberline {5.27}{\ignorespaces Cliente REST para pruebas en Swagger\relax }}{92}{figure.caption.82}\protected@file@percent }
\newlabel{fig:documentacion2}{{5.27}{92}{Cliente REST para pruebas en Swagger\relax }{figure.caption.82}{}}
\@writefile{toc}{\contentsline {section}{\numberline {5.4}Aplicaci\IeC {\'o}n M\IeC {\'o}vil}{92}{section.5.4}\protected@file@percent }
\newlabel{sec:androidapp}{{5.4}{92}{Aplicación Móvil}{section.5.4}{}}
\@writefile{lof}{\contentsline {figure}{\numberline {5.28}{\ignorespaces Cuota de versiones Android en 2018\relax }}{93}{figure.caption.83}\protected@file@percent }
\newlabel{fig:minversion2}{{5.28}{93}{Cuota de versiones Android en 2018\relax }{figure.caption.83}{}}
\@writefile{lof}{\contentsline {figure}{\numberline {5.29}{\ignorespaces Estructura del proyecto Android\relax }}{94}{figure.caption.84}\protected@file@percent }
\newlabel{fig:androidreferencialib}{{5.29}{94}{Estructura del proyecto Android\relax }{figure.caption.84}{}}
\@writefile{lof}{\contentsline {figure}{\numberline {5.30}{\ignorespaces Ejemplo de interacci\IeC {\'o}n entre m\IeC {\'o}dulos de la Aplicaci\IeC {\'o}n - Actividades\relax }}{95}{figure.caption.85}\protected@file@percent }
\newlabel{fig:androidfuncionamiento}{{5.30}{95}{Ejemplo de interacción entre módulos de la Aplicación - Actividades\relax }{figure.caption.85}{}}
\@writefile{lof}{\contentsline {figure}{\numberline {5.31}{\ignorespaces Ejemplo de interacci\IeC {\'o}n entre m\IeC {\'o}dulos de la Aplicaci\IeC {\'o}n - Servicios y cliente REST\relax }}{95}{figure.caption.86}\protected@file@percent }
\newlabel{fig:androidrestfcm}{{5.31}{95}{Ejemplo de interacción entre módulos de la Aplicación - Servicios y cliente REST\relax }{figure.caption.86}{}}
\@writefile{lof}{\contentsline {figure}{\numberline {5.32}{\ignorespaces Ejecuci\IeC {\'o}n de \textit  {Intent} en Acceso\relax }}{96}{figure.caption.87}\protected@file@percent }
\newlabel{fig:intent}{{5.32}{96}{Ejecución de \textit {Intent} en Acceso\relax }{figure.caption.87}{}}
\@writefile{toc}{\contentsline {subsection}{\numberline {5.4.1}Recursos}{97}{subsection.5.4.1}\protected@file@percent }
\@writefile{toc}{\contentsline {subsubsection}{Drawable}{97}{section*.88}\protected@file@percent }
\@writefile{lof}{\contentsline {figure}{\numberline {5.33}{\ignorespaces Ejemplos de \textit  {drawables} empleados\relax }}{97}{figure.caption.89}\protected@file@percent }
\newlabel{fig:drawables}{{5.33}{97}{Ejemplos de \textit {drawables} empleados\relax }{figure.caption.89}{}}
\@writefile{toc}{\contentsline {subsubsection}{Layout}{97}{section*.90}\protected@file@percent }
\@writefile{lof}{\contentsline {figure}{\numberline {5.34}{\ignorespaces Diagrama de herencia simplificado para la clase View\relax }}{98}{figure.caption.91}\protected@file@percent }
\newlabel{fig:viewherencia}{{5.34}{98}{Diagrama de herencia simplificado para la clase View\relax }{figure.caption.91}{}}
\@writefile{lof}{\contentsline {figure}{\numberline {5.35}{\ignorespaces Ejemplos de distribuciones por tipo de Layout\relax }}{98}{figure.caption.92}\protected@file@percent }
\newlabel{fig:layouts}{{5.35}{98}{Ejemplos de distribuciones por tipo de Layout\relax }{figure.caption.92}{}}
\@writefile{lof}{\contentsline {figure}{\numberline {5.36}{\ignorespaces Interfaz gr\IeC {\'a}fica de dise\IeC {\~n}o y Archivo XML - Registro de Usuario\relax }}{99}{figure.caption.93}\protected@file@percent }
\newlabel{fig:registrolayout}{{5.36}{99}{Interfaz gráfica de diseño y Archivo XML - Registro de Usuario\relax }{figure.caption.93}{}}
\@writefile{lot}{\contentsline {table}{\numberline {5.6}{\ignorespaces Colecci\IeC {\'o}n de Layouts\relax }}{99}{table.caption.94}\protected@file@percent }
\newlabel{tab:layout}{{5.6}{99}{Colección de Layouts\relax }{table.caption.94}{}}
\@writefile{toc}{\contentsline {subsubsection}{Menu}{99}{section*.95}\protected@file@percent }
\@writefile{toc}{\contentsline {subsubsection}{Values}{100}{section*.96}\protected@file@percent }
\newlabel{code:androidcolors}{{5.19}{100}{Extracto de colors.xml}{lstlisting.5.19}{}}
\@writefile{lol}{\contentsline {lstlisting}{\numberline {5.19}Extracto de colors.xml}{100}{lstlisting.5.19}\protected@file@percent }
\newlabel{code:androidstyles}{{5.20}{100}{Extracto de styles.xml}{lstlisting.5.20}{}}
\@writefile{lol}{\contentsline {lstlisting}{\numberline {5.20}Extracto de styles.xml}{100}{lstlisting.5.20}\protected@file@percent }
\@writefile{lof}{\contentsline {figure}{\numberline {5.37}{\ignorespaces Captura de la herramienta de dise\IeC {\~n}o en Material Design\relax }}{101}{figure.caption.97}\protected@file@percent }
\newlabel{fig:mdcolor}{{5.37}{101}{Captura de la herramienta de diseño en Material Design\relax }{figure.caption.97}{}}
\newlabel{code:androidstrings}{{5.21}{101}{Extracto de strings.xml}{lstlisting.5.21}{}}
\@writefile{lol}{\contentsline {lstlisting}{\numberline {5.21}Extracto de strings.xml}{101}{lstlisting.5.21}\protected@file@percent }
\@writefile{toc}{\contentsline {subsection}{\numberline {5.4.2}Utilidades}{102}{subsection.5.4.2}\protected@file@percent }
\@writefile{toc}{\contentsline {subsection}{\numberline {5.4.3}Cliente REST}{102}{subsection.5.4.3}\protected@file@percent }
\@writefile{lof}{\contentsline {figure}{\numberline {5.38}{\ignorespaces Diagrma de clases UML - Retrofit2\relax }}{103}{figure.caption.98}\protected@file@percent }
\newlabel{fig:umlrest}{{5.38}{103}{Diagrma de clases UML - Retrofit2\relax }{figure.caption.98}{}}
\newlabel{code:androidstrings}{{5.22}{104}{Ejemplo de método REST - Clase \textit {APIInterface}}{lstlisting.5.22}{}}
\@writefile{lol}{\contentsline {lstlisting}{\numberline {5.22}Ejemplo de m\IeC {\'e}todo REST - Clase \textit  {APIInterface}}{104}{lstlisting.5.22}\protected@file@percent }
\newlabel{code:ultimatemp}{{5.23}{104}{Ejemplo de respuesta - Última temperatura registrada}{lstlisting.5.23}{}}
\@writefile{lol}{\contentsline {lstlisting}{\numberline {5.23}Ejemplo de respuesta - \IeC {\'U}ltima temperatura registrada}{104}{lstlisting.5.23}\protected@file@percent }
\newlabel{code:ultimatemp}{{5.24}{104}{Ejemplo de respuesta - Última temperatura registrada}{lstlisting.5.24}{}}
\@writefile{lol}{\contentsline {lstlisting}{\numberline {5.24}Ejemplo de respuesta - \IeC {\'U}ltima temperatura registrada}{104}{lstlisting.5.24}\protected@file@percent }
\@writefile{lof}{\contentsline {figure}{\numberline {5.39}{\ignorespaces Diagrama de clases UML - M\IeC {\'o}dulo \textit  {model} con clases POJO\relax }}{105}{figure.caption.99}\protected@file@percent }
\newlabel{fig:umlrestmodel}{{5.39}{105}{Diagrama de clases UML - Módulo \textit {model} con clases POJO\relax }{figure.caption.99}{}}
\@writefile{lof}{\contentsline {figure}{\numberline {5.40}{\ignorespaces Diagrama ejemplo del funcionamiento de la Programaci\IeC {\'o}n Reactiva \relax }}{106}{figure.caption.100}\protected@file@percent }
\newlabel{fig:rxjava}{{5.40}{106}{Diagrama ejemplo del funcionamiento de la Programación Reactiva \relax }{figure.caption.100}{}}
\newlabel{code:androidstrings}{{5.25}{106}{Ejemplo de método REST - Clase \textit {APIInterface}}{lstlisting.5.25}{}}
\@writefile{lol}{\contentsline {lstlisting}{\numberline {5.25}Ejemplo de m\IeC {\'e}todo REST - Clase \textit  {APIInterface}}{106}{lstlisting.5.25}\protected@file@percent }
\@writefile{lof}{\contentsline {figure}{\numberline {5.41}{\ignorespaces Diagrama de flujo - Clase Authenticator\relax }}{108}{figure.caption.101}\protected@file@percent }
\newlabel{fig:diagramaauthenticator}{{5.41}{108}{Diagrama de flujo - Clase Authenticator\relax }{figure.caption.101}{}}
\@writefile{toc}{\contentsline {subsection}{\numberline {5.4.4}Actividades}{108}{subsection.5.4.4}\protected@file@percent }
\newlabel{code:regmanifest}{{5.26}{109}{Registro de actividades en AndroidManifest.xml}{lstlisting.5.26}{}}
\@writefile{lol}{\contentsline {lstlisting}{\numberline {5.26}Registro de actividades en AndroidManifest.xml}{109}{lstlisting.5.26}\protected@file@percent }
\@writefile{lof}{\contentsline {figure}{\numberline {5.42}{\ignorespaces Ciclo de vida de una actividad\relax }}{110}{figure.caption.102}\protected@file@percent }
\newlabel{fig:activityciclovida}{{5.42}{110}{Ciclo de vida de una actividad\relax }{figure.caption.102}{}}
\newlabel{code:actividadgen}{{5.27}{111}{Ejemplo genérico de Actividad JAVA en el la aplicación SIDOCS}{lstlisting.5.27}{}}
\@writefile{lol}{\contentsline {lstlisting}{\numberline {5.27}Ejemplo gen\IeC {\'e}rico de Actividad JAVA en el la aplicaci\IeC {\'o}n SIDOCS}{111}{lstlisting.5.27}\protected@file@percent }
\@writefile{toc}{\contentsline {subsubsection}{Acceso}{112}{section*.103}\protected@file@percent }
\@writefile{lof}{\contentsline {figure}{\numberline {5.43}{\ignorespaces Actividad de Acceso\relax }}{112}{figure.caption.104}\protected@file@percent }
\newlabel{fig:acceso}{{5.43}{112}{Actividad de Acceso\relax }{figure.caption.104}{}}
\@writefile{lof}{\contentsline {figure}{\numberline {5.44}{\ignorespaces Diagrama de flujo - Actividad Acceso\relax }}{113}{figure.caption.105}\protected@file@percent }
\newlabel{fig:diagacceso1}{{5.44}{113}{Diagrama de flujo - Actividad Acceso\relax }{figure.caption.105}{}}
\@writefile{lof}{\contentsline {figure}{\numberline {5.45}{\ignorespaces Diagrama de flujo - Petici\IeC {\'o}n de acceso en el servidor\relax }}{114}{figure.caption.106}\protected@file@percent }
\newlabel{fig:diagacceso2}{{5.45}{114}{Diagrama de flujo - Petición de acceso en el servidor\relax }{figure.caption.106}{}}
\@writefile{toc}{\contentsline {subsubsection}{Registro}{115}{section*.107}\protected@file@percent }
\@writefile{lof}{\contentsline {figure}{\numberline {5.46}{\ignorespaces Actividad de Registro\relax }}{115}{figure.caption.108}\protected@file@percent }
\newlabel{fig:registro2}{{5.46}{115}{Actividad de Registro\relax }{figure.caption.108}{}}
\@writefile{lof}{\contentsline {figure}{\numberline {5.47}{\ignorespaces Diagrama de flujo - Actividad Registro\relax }}{116}{figure.caption.109}\protected@file@percent }
\newlabel{fig:diagregistro1}{{5.47}{116}{Diagrama de flujo - Actividad Registro\relax }{figure.caption.109}{}}
\@writefile{toc}{\contentsline {subsubsection}{Men\IeC {\'u} Principal y Men\IeC {\'u} Superior}{116}{section*.110}\protected@file@percent }
\newlabel{code:onclickintent}{{5.28}{117}{Ejemplo de navegación entre actividades tras pulsar botón}{lstlisting.5.28}{}}
\@writefile{lol}{\contentsline {lstlisting}{\numberline {5.28}Ejemplo de navegaci\IeC {\'o}n entre actividades tras pulsar bot\IeC {\'o}n}{117}{lstlisting.5.28}\protected@file@percent }
\@writefile{lof}{\contentsline {figure}{\numberline {5.48}{\ignorespaces Actividad de Men\IeC {\'u} Principal\relax }}{117}{figure.caption.111}\protected@file@percent }
\newlabel{fig:menuprincipal5}{{5.48}{117}{Actividad de Menú Principal\relax }{figure.caption.111}{}}
\@writefile{lof}{\contentsline {figure}{\numberline {5.49}{\ignorespaces Actividad de Cr\IeC {\'e}ditos\relax }}{118}{figure.caption.112}\protected@file@percent }
\newlabel{fig:creditos}{{5.49}{118}{Actividad de Créditos\relax }{figure.caption.112}{}}
\@writefile{lof}{\contentsline {figure}{\numberline {5.50}{\ignorespaces Diagrama de flujo - Cierre de sesi\IeC {\'o}n activa\relax }}{118}{figure.caption.113}\protected@file@percent }
\newlabel{fig:diagmenuprincipal4}{{5.50}{118}{Diagrama de flujo - Cierre de sesión activa\relax }{figure.caption.113}{}}
\@writefile{toc}{\contentsline {subsubsection}{Notificaciones}{119}{section*.114}\protected@file@percent }
\newlabel{code:regmanifestfcm}{{5.29}{119}{Registro del canal FCM en AndroidManifest.xml}{lstlisting.5.29}{}}
\@writefile{lol}{\contentsline {lstlisting}{\numberline {5.29}Registro del canal FCM en AndroidManifest.xml}{119}{lstlisting.5.29}\protected@file@percent }
\@writefile{lof}{\contentsline {figure}{\numberline {5.51}{\ignorespaces Flujo de informaci\IeC {\'o}n en notificaciones por alarma\relax }}{120}{figure.caption.115}\protected@file@percent }
\newlabel{fig:diagramanotifica}{{5.51}{120}{Flujo de información en notificaciones por alarma\relax }{figure.caption.115}{}}
\gdef \LT@i {\LT@entry 
    {1}{59.77974pt}\LT@entry 
    {1}{41.72028pt}\LT@entry 
    {1}{96.52353pt}\LT@entry 
    {1}{240.02203pt}}
\@writefile{lot}{\contentsline {table}{\numberline {5.7}{\ignorespaces Mensajes de notificaci\IeC {\'o}n push y email\relax }}{121}{table.5.7}\protected@file@percent }
\newlabel{tab:Mensajes_notificacion}{{5.7}{121}{Mensajes de notificación push y email\relax }{table.5.7}{}}
\@writefile{toc}{\contentsline {subsubsection}{Temperatura y Humedad}{121}{section*.116}\protected@file@percent }
\@writefile{lof}{\contentsline {figure}{\numberline {5.52}{\ignorespaces Actividad de Sensores\relax }}{121}{figure.caption.117}\protected@file@percent }
\newlabel{fig:temphum2}{{5.52}{121}{Actividad de Sensores\relax }{figure.caption.117}{}}
\@writefile{lof}{\contentsline {figure}{\numberline {5.53}{\ignorespaces Diagrama de flujo - Actividad Sensores\relax }}{122}{figure.caption.118}\protected@file@percent }
\newlabel{fig:diagsensores}{{5.53}{122}{Diagrama de flujo - Actividad Sensores\relax }{figure.caption.118}{}}
\@writefile{toc}{\contentsline {subsubsection}{C\IeC {\'a}mara de Seguridad}{122}{section*.119}\protected@file@percent }
\@writefile{lof}{\contentsline {figure}{\numberline {5.54}{\ignorespaces Diagrama de Proceso - Actividad Camara\relax }}{123}{figure.caption.120}\protected@file@percent }
\newlabel{fig:camara2}{{5.54}{123}{Diagrama de Proceso - Actividad Camara\relax }{figure.caption.120}{}}
\@writefile{lof}{\contentsline {figure}{\numberline {5.55}{\ignorespaces Formato de la URL V\IeC {\'\i }deo Streaming\relax }}{123}{figure.caption.121}\protected@file@percent }
\newlabel{fig:uv4lurl}{{5.55}{123}{Formato de la URL Vídeo Streaming\relax }{figure.caption.121}{}}
\newlabel{code:sslhandler}{{5.30}{123}{Manejo de excepciones por error SSL}{lstlisting.5.30}{}}
\@writefile{lol}{\contentsline {lstlisting}{\numberline {5.30}Manejo de excepciones por error SSL}{123}{lstlisting.5.30}\protected@file@percent }
\@writefile{toc}{\contentsline {subsubsection}{Listado de Alarma}{124}{section*.122}\protected@file@percent }
\@writefile{lof}{\contentsline {figure}{\numberline {5.56}{\ignorespaces Actividad de Alarmas\relax }}{124}{figure.caption.123}\protected@file@percent }
\newlabel{fig:listadoalarmas2}{{5.56}{124}{Actividad de Alarmas\relax }{figure.caption.123}{}}
\@writefile{lof}{\contentsline {figure}{\numberline {5.57}{\ignorespaces Diagrama de flujo - Actividad Alarmas\relax }}{125}{figure.caption.124}\protected@file@percent }
\newlabel{fig:diagramaalarmas}{{5.57}{125}{Diagrama de flujo - Actividad Alarmas\relax }{figure.caption.124}{}}
\@writefile{toc}{\contentsline {subsubsection}{Configuraci\IeC {\'o}n}{126}{section*.125}\protected@file@percent }
\@writefile{lof}{\contentsline {figure}{\numberline {5.58}{\ignorespaces Actividad de Configuraci\IeC {\'o}n\relax }}{126}{figure.caption.126}\protected@file@percent }
\newlabel{fig:configuracion2}{{5.58}{126}{Actividad de Configuración\relax }{figure.caption.126}{}}
\@writefile{lof}{\contentsline {figure}{\numberline {5.59}{\ignorespaces Diagrama de flujo - Actividad Configuracion\relax }}{127}{figure.caption.127}\protected@file@percent }
\newlabel{fig:diagconfiguracion}{{5.59}{127}{Diagrama de flujo - Actividad Configuracion\relax }{figure.caption.127}{}}
\@setckpt{capitulos/software}{
\setcounter{page}{128}
\setcounter{equation}{0}
\setcounter{enumi}{5}
\setcounter{enumii}{0}
\setcounter{enumiii}{0}
\setcounter{enumiv}{0}
\setcounter{footnote}{17}
\setcounter{mpfootnote}{0}
\setcounter{part}{0}
\setcounter{chapter}{5}
\setcounter{section}{4}
\setcounter{subsection}{4}
\setcounter{subsubsection}{0}
\setcounter{paragraph}{0}
\setcounter{subparagraph}{0}
\setcounter{figure}{59}
\setcounter{table}{7}
\setcounter{parentequation}{0}
\setcounter{subfigure}{0}
\setcounter{lofdepth}{1}
\setcounter{subtable}{0}
\setcounter{lotdepth}{1}
\setcounter{lstnumber}{9}
\setcounter{@pps}{0}
\setcounter{@ppsavesec}{0}
\setcounter{@ppsaveapp}{0}
\setcounter{LT@tables}{1}
\setcounter{LT@chunks}{5}
\setcounter{Item}{15}
\setcounter{Hfootnote}{38}
\setcounter{bookmark@seq@number}{61}
\setcounter{caption@flags}{0}
\setcounter{ContinuedFloat}{0}
\setcounter{lstlisting}{30}
\setcounter{section@level}{3}
}
