\relax 
\providecommand\hyper@newdestlabel[2]{}
\catcode `"\active 
\catcode `<\active 
\catcode `>\active 
\@nameuse{es@quoting}
\providecommand\HyperFirstAtBeginDocument{\AtBeginDocument}
\HyperFirstAtBeginDocument{\ifx\hyper@anchor\@undefined
\global\let\oldcontentsline\contentsline
\gdef\contentsline#1#2#3#4{\oldcontentsline{#1}{#2}{#3}}
\global\let\oldnewlabel\newlabel
\gdef\newlabel#1#2{\newlabelxx{#1}#2}
\gdef\newlabelxx#1#2#3#4#5#6{\oldnewlabel{#1}{{#2}{#3}}}
\AtEndDocument{\ifx\hyper@anchor\@undefined
\let\contentsline\oldcontentsline
\let\newlabel\oldnewlabel
\fi}
\fi}
\global\let\hyper@last\relax 
\gdef\HyperFirstAtBeginDocument#1{#1}
\providecommand\HyField@AuxAddToFields[1]{}
\providecommand\HyField@AuxAddToCoFields[2]{}
\@input{capitulos/portada.aux}
\providecommand \oddpage@label [2]{}
\babel@aux{spanish}{}
\@input{capitulos/firmas.aux}
\@input{capitulos/licencia.aux}
\@input{capitulos/evaluacion.aux}
\@input{capitulos/agradecimientos.aux}
\@input{capitulos/resumen.aux}
\@writefile{toc}{\contentsline {chapter}{\IeC {\'I}ndice}{\es@scroman  {xvii}}{chapter*.6}\protected@file@percent }
\@input{capitulos/introduccion.aux}
\@input{capitulos/estadoarte.aux}
\@input{capitulos/hardware.aux}
\@input{capitulos/disenyo.aux}
\@input{capitulos/software.aux}
\@input{capitulos/resultados.aux}
\@input{capitulos/gestion.aux}
\@input{capitulos/conclusion.aux}
\@input{capitulos/apendice.aux}
\bibstyle{plain}
\bibdata{bibliografia/bibliografia}
\bibcite{HASIoT:2017}{1}
\bibcite{HASMonitSec3:2016}{2}
\bibcite{Chakraborty:2017}{3}
\bibcite{HASIoTReview:2018}{4}
\bibcite{HoneyImHomeVideo}{5}
\bibcite{HASHistory}{6}
\bibcite{HASIoT2:2016}{7}
\bibcite{Jabbar:2018}{8}
\bibcite{HASsecurity:2015}{9}
\bibcite{kanban}{10}
\bibcite{X10:2015}{11}
\@writefile{toc}{\contentsline {chapter}{Bibliografia}{187}{figure.caption.168}\protected@file@percent }
\bibcite{Nan:2017}{12}
\bibcite{git}{13}
\bibcite{HASMonitSec2:2017}{14}
\bibcite{HASevolution:2009}{15}
\bibcite{Salman:2016}{16}
\bibcite{ECHOIV}{17}
\bibcite{HASMonitSec:2016}{18}
